[{
  "user": {
    "created_at": "2013-10-09T11:05:04.000Z",
    "default_profile_image": false,
    "description": "",
    "fast_followers_count": 0,
    "favourites_count": 3064,
    "followers_count": 163,
    "friends_count": 22,
    "has_custom_timelines": false,
    "is_translator": false,
    "listed_count": 5,
    "location": "",
    "media_count": 121,
    "name": "Women In Lingerie",
    "normal_followers_count": 163,
    "possibly_sensitive": true,
    "profile_banner_url": "https://pbs.twimg.com/profile_banners/1949025828/1424950316",
    "profile_image_url_https": "https://pbs.twimg.com/profile_images/566623726523781120/s_TUfO54_normal.jpeg",
    "protected": false,
    "screen_name": "aktokaji",
    "statuses_count": 31,
    "translator_type": "none",
    "verified": false,
    "withheld_in_countries": [],
    "id_str": "1949025828"
  },
  "id": "1616741432127279105",
  "conversation_id": "1616741432127279105",
  "full_text": "https://t.co/7GPRkcSU4Q",
  "reply_count": 0,
  "retweet_count": 0,
  "favorite_count": 0,
  "hashtags": [],
  "symbols": [],
  "user_mentions": [],
  "urls": [
    {
      "url": "https://t.co/7GPRkcSU4Q",
      "expanded_url": "https://twitter.com/Sousousouh/status/1616599529503207425/photo/1",
      "display_url": "pic.twitter.com/7GPRkcSU4Q"
    }
  ],
  "media": [],
  "url": "https://twitter.com/aktokaji/status/1616741432127279105",
  "created_at": "2023-01-21T10:16:09.000Z",
  "view_count": "7",
  "startUrl": "https://twitter.com/aktokaji/with_replies"
},
{
  "user": {
    "created_at": "2013-10-09T11:05:04.000Z",
    "default_profile_image": false,
    "description": "",
    "fast_followers_count": 0,
    "favourites_count": 3064,
    "followers_count": 163,
    "friends_count": 22,
    "has_custom_timelines": false,
    "is_translator": false,
    "listed_count": 5,
    "location": "",
    "media_count": 121,
    "name": "Women In Lingerie",
    "normal_followers_count": 163,
    "possibly_sensitive": true,
    "profile_banner_url": "https://pbs.twimg.com/profile_banners/1949025828/1424950316",
    "profile_image_url_https": "https://pbs.twimg.com/profile_images/566623726523781120/s_TUfO54_normal.jpeg",
    "protected": false,
    "screen_name": "aktokaji",
    "statuses_count": 31,
    "translator_type": "none",
    "verified": false,
    "withheld_in_countries": [],
    "id_str": "1949025828"
  },
  "id": "1616593220665999361",
  "conversation_id": "1616593220665999361",
  "full_text": "https://t.co/dOMjktWyEl",
  "reply_count": 0,
  "retweet_count": 0,
  "favorite_count": 0,
  "hashtags": [],
  "symbols": [],
  "user_mentions": [],
  "urls": [
    {
      "url": "https://t.co/dOMjktWyEl",
      "expanded_url": "https://twitter.com/Sousousouh/status/1616218399813832704/photo/1",
      "display_url": "pic.twitter.com/dOMjktWyEl"
    }
  ],
  "media": [],
  "url": "https://twitter.com/aktokaji/status/1616593220665999361",
  "created_at": "2023-01-21T00:27:13.000Z",
  "view_count": "12",
  "startUrl": "https://twitter.com/aktokaji/with_replies"
},
{
  "user": {
    "created_at": "2013-10-09T11:05:04.000Z",
    "default_profile_image": false,
    "description": "",
    "fast_followers_count": 0,
    "favourites_count": 3064,
    "followers_count": 163,
    "friends_count": 22,
    "has_custom_timelines": false,
    "is_translator": false,
    "listed_count": 5,
    "location": "",
    "media_count": 121,
    "name": "Women In Lingerie",
    "normal_followers_count": 163,
    "possibly_sensitive": true,
    "profile_banner_url": "https://pbs.twimg.com/profile_banners/1949025828/1424950316",
    "profile_image_url_https": "https://pbs.twimg.com/profile_images/566623726523781120/s_TUfO54_normal.jpeg",
    "protected": false,
    "screen_name": "aktokaji",
    "statuses_count": 31,
    "translator_type": "none",
    "verified": false,
    "withheld_in_countries": [],
    "id_str": "1949025828"
  },
  "id": "1583568871734140928",
  "conversation_id": "1583568871734140928",
  "full_text": "https://t.co/K9NruCscER",
  "reply_count": 0,
  "retweet_count": 0,
  "favorite_count": 0,
  "hashtags": [],
  "symbols": [],
  "user_mentions": [],
  "urls": [],
  "media": [
    {
      "media_url": "https://pbs.twimg.com/media/Ffn3dVBUYAADIHR.jpg",
      "type": "photo"
    }
  ],
  "url": "https://twitter.com/aktokaji/status/1583568871734140928",
  "created_at": "2022-10-21T21:20:14.000Z",
  "view_count": null,
  "startUrl": "https://twitter.com/aktokaji/with_replies"
},
{
  "user": {
    "created_at": "2013-10-09T11:05:04.000Z",
    "default_profile_image": false,
    "description": "",
    "fast_followers_count": 0,
    "favourites_count": 3064,
    "followers_count": 163,
    "friends_count": 22,
    "has_custom_timelines": false,
    "is_translator": false,
    "listed_count": 5,
    "location": "",
    "media_count": 121,
    "name": "Women In Lingerie",
    "normal_followers_count": 163,
    "possibly_sensitive": true,
    "profile_banner_url": "https://pbs.twimg.com/profile_banners/1949025828/1424950316",
    "profile_image_url_https": "https://pbs.twimg.com/profile_images/566623726523781120/s_TUfO54_normal.jpeg",
    "protected": false,
    "screen_name": "aktokaji",
    "statuses_count": 31,
    "translator_type": "none",
    "verified": false,
    "withheld_in_countries": [],
    "id_str": "1949025828"
  },
  "id": "1549104601801994240",
  "conversation_id": "1549104601801994240",
  "full_text": "Reina Tanaka (田中れいな) https://t.co/HnfGBUhzGa",
  "reply_count": 0,
  "retweet_count": 0,
  "favorite_count": 0,
  "hashtags": [],
  "symbols": [],
  "user_mentions": [],
  "urls": [],
  "media": [
    {
      "media_url": "https://pbs.twimg.com/media/FX-GatSVsAAspyM.jpg",
      "type": "photo"
    }
  ],
  "url": "https://twitter.com/aktokaji/status/1549104601801994240",
  "created_at": "2022-07-18T18:51:32.000Z",
  "view_count": null,
  "startUrl": "https://twitter.com/aktokaji/with_replies"
},
{
  "user": {
    "created_at": "2013-10-09T11:05:04.000Z",
    "default_profile_image": false,
    "description": "",
    "fast_followers_count": 0,
    "favourites_count": 3064,
    "followers_count": 163,
    "friends_count": 22,
    "has_custom_timelines": false,
    "is_translator": false,
    "listed_count": 5,
    "location": "",
    "media_count": 121,
    "name": "Women In Lingerie",
    "normal_followers_count": 163,
    "possibly_sensitive": true,
    "profile_banner_url": "https://pbs.twimg.com/profile_banners/1949025828/1424950316",
    "profile_image_url_https": "https://pbs.twimg.com/profile_images/566623726523781120/s_TUfO54_normal.jpeg",
    "protected": false,
    "screen_name": "aktokaji",
    "statuses_count": 31,
    "translator_type": "none",
    "verified": false,
    "withheld_in_countries": [],
    "id_str": "1949025828"
  },
  "id": "1549104090059132928",
  "conversation_id": "1549104090059132928",
  "full_text": "Reina Tanaka (田中れいな) https://t.co/DkbIO3qiEu",
  "reply_count": 0,
  "retweet_count": 0,
  "favorite_count": 0,
  "hashtags": [],
  "symbols": [],
  "user_mentions": [],
  "urls": [],
  "media": [
    {
      "media_url": "https://pbs.twimg.com/media/FX-F5fuVsAAF95F.jpg",
      "type": "photo"
    }
  ],
  "url": "https://twitter.com/aktokaji/status/1549104090059132928",
  "created_at": "2022-07-18T18:49:30.000Z",
  "view_count": null,
  "startUrl": "https://twitter.com/aktokaji/with_replies"
},
{
  "user": {
    "created_at": "2013-10-09T11:05:04.000Z",
    "default_profile_image": false,
    "description": "",
    "fast_followers_count": 0,
    "favourites_count": 3064,
    "followers_count": 163,
    "friends_count": 22,
    "has_custom_timelines": false,
    "is_translator": false,
    "listed_count": 5,
    "location": "",
    "media_count": 121,
    "name": "Women In Lingerie",
    "normal_followers_count": 163,
    "possibly_sensitive": true,
    "profile_banner_url": "https://pbs.twimg.com/profile_banners/1949025828/1424950316",
    "profile_image_url_https": "https://pbs.twimg.com/profile_images/566623726523781120/s_TUfO54_normal.jpeg",
    "protected": false,
    "screen_name": "aktokaji",
    "statuses_count": 31,
    "translator_type": "none",
    "verified": false,
    "withheld_in_countries": [],
    "id_str": "1949025828"
  },
  "id": "1549103367300849667",
  "conversation_id": "1549103367300849667",
  "full_text": "Reina Tanaka (田中れいな) https://t.co/kYSP7sh2y8",
  "reply_count": 0,
  "retweet_count": 0,
  "favorite_count": 0,
  "hashtags": [],
  "symbols": [],
  "user_mentions": [],
  "urls": [],
  "media": [
    {
      "media_url": "https://pbs.twimg.com/media/FX-FLHCVQAA18AO.jpg",
      "type": "photo"
    }
  ],
  "url": "https://twitter.com/aktokaji/status/1549103367300849667",
  "created_at": "2022-07-18T18:46:38.000Z",
  "view_count": null,
  "startUrl": "https://twitter.com/aktokaji/with_replies"
},
{
  "user": {
    "created_at": "2013-10-09T11:05:04.000Z",
    "default_profile_image": false,
    "description": "",
    "fast_followers_count": 0,
    "favourites_count": 3064,
    "followers_count": 163,
    "friends_count": 22,
    "has_custom_timelines": false,
    "is_translator": false,
    "listed_count": 5,
    "location": "",
    "media_count": 121,
    "name": "Women In Lingerie",
    "normal_followers_count": 163,
    "possibly_sensitive": true,
    "profile_banner_url": "https://pbs.twimg.com/profile_banners/1949025828/1424950316",
    "profile_image_url_https": "https://pbs.twimg.com/profile_images/566623726523781120/s_TUfO54_normal.jpeg",
    "protected": false,
    "screen_name": "aktokaji",
    "statuses_count": 31,
    "translator_type": "none",
    "verified": false,
    "withheld_in_countries": [],
    "id_str": "1949025828"
  },
  "id": "1547829079084175361",
  "conversation_id": "1547829079084175361",
  "full_text": "https://t.co/ZeNd4fy2Zm",
  "reply_count": 0,
  "retweet_count": 0,
  "favorite_count": 0,
  "hashtags": [],
  "symbols": [],
  "user_mentions": [],
  "urls": [],
  "media": [
    {
      "media_url": "https://pbs.twimg.com/media/FXr-VewVUAAcTz0.jpg",
      "type": "photo"
    }
  ],
  "url": "https://twitter.com/aktokaji/status/1547829079084175361",
  "created_at": "2022-07-15T06:23:04.000Z",
  "view_count": null,
  "startUrl": "https://twitter.com/aktokaji/with_replies"
},
{
  "user": {
    "created_at": "2013-10-09T11:05:04.000Z",
    "default_profile_image": false,
    "description": "",
    "fast_followers_count": 0,
    "favourites_count": 3064,
    "followers_count": 163,
    "friends_count": 22,
    "has_custom_timelines": false,
    "is_translator": false,
    "listed_count": 5,
    "location": "",
    "media_count": 121,
    "name": "Women In Lingerie",
    "normal_followers_count": 163,
    "possibly_sensitive": true,
    "profile_banner_url": "https://pbs.twimg.com/profile_banners/1949025828/1424950316",
    "profile_image_url_https": "https://pbs.twimg.com/profile_images/566623726523781120/s_TUfO54_normal.jpeg",
    "protected": false,
    "screen_name": "aktokaji",
    "statuses_count": 31,
    "translator_type": "none",
    "verified": false,
    "withheld_in_countries": [],
    "id_str": "1949025828"
  },
  "id": "1547189682357694465",
  "conversation_id": "1547189682357694465",
  "full_text": "https://t.co/D1J9HuxIFN",
  "reply_count": 0,
  "retweet_count": 0,
  "favorite_count": 0,
  "hashtags": [],
  "symbols": [],
  "user_mentions": [],
  "urls": [],
  "media": [
    {
      "media_url": "https://pbs.twimg.com/media/FXi4zuoUIAEZHWH.jpg",
      "type": "photo"
    }
  ],
  "url": "https://twitter.com/aktokaji/status/1547189682357694465",
  "created_at": "2022-07-13T12:02:20.000Z",
  "view_count": null,
  "startUrl": "https://twitter.com/aktokaji/with_replies"
},
{
  "user": {
    "created_at": "2013-10-09T11:05:04.000Z",
    "default_profile_image": false,
    "description": "",
    "fast_followers_count": 0,
    "favourites_count": 3064,
    "followers_count": 163,
    "friends_count": 22,
    "has_custom_timelines": false,
    "is_translator": false,
    "listed_count": 5,
    "location": "",
    "media_count": 121,
    "name": "Women In Lingerie",
    "normal_followers_count": 163,
    "possibly_sensitive": true,
    "profile_banner_url": "https://pbs.twimg.com/profile_banners/1949025828/1424950316",
    "profile_image_url_https": "https://pbs.twimg.com/profile_images/566623726523781120/s_TUfO54_normal.jpeg",
    "protected": false,
    "screen_name": "aktokaji",
    "statuses_count": 31,
    "translator_type": "none",
    "verified": false,
    "withheld_in_countries": [],
    "id_str": "1949025828"
  },
  "id": "1547174726581178368",
  "conversation_id": "1547174726581178368",
  "full_text": "https://t.co/Udcf4TL5Yn",
  "reply_count": 0,
  "retweet_count": 0,
  "favorite_count": 0,
  "hashtags": [],
  "symbols": [],
  "user_mentions": [],
  "urls": [],
  "media": [
    {
      "media_url": "https://pbs.twimg.com/media/FXirNWvUUAIXBB1.jpg",
      "type": "photo"
    }
  ],
  "url": "https://twitter.com/aktokaji/status/1547174726581178368",
  "created_at": "2022-07-13T11:02:54.000Z",
  "view_count": null,
  "startUrl": "https://twitter.com/aktokaji/with_replies"
},
{
  "user": {
    "created_at": "2013-10-09T11:05:04.000Z",
    "default_profile_image": false,
    "description": "",
    "fast_followers_count": 0,
    "favourites_count": 3064,
    "followers_count": 163,
    "friends_count": 22,
    "has_custom_timelines": false,
    "is_translator": false,
    "listed_count": 5,
    "location": "",
    "media_count": 121,
    "name": "Women In Lingerie",
    "normal_followers_count": 163,
    "possibly_sensitive": true,
    "profile_banner_url": "https://pbs.twimg.com/profile_banners/1949025828/1424950316",
    "profile_image_url_https": "https://pbs.twimg.com/profile_images/566623726523781120/s_TUfO54_normal.jpeg",
    "protected": false,
    "screen_name": "aktokaji",
    "statuses_count": 31,
    "translator_type": "none",
    "verified": false,
    "withheld_in_countries": [],
    "id_str": "1949025828"
  },
  "id": "1547172612924588032",
  "conversation_id": "1547172612924588032",
  "full_text": "https://t.co/55UHIJHQnh",
  "reply_count": 0,
  "retweet_count": 0,
  "favorite_count": 0,
  "hashtags": [],
  "symbols": [],
  "user_mentions": [],
  "urls": [],
  "media": [
    {
      "media_url": "https://pbs.twimg.com/media/FXipSA-UUAA2iX-.jpg",
      "type": "photo"
    }
  ],
  "url": "https://twitter.com/aktokaji/status/1547172612924588032",
  "created_at": "2022-07-13T10:54:30.000Z",
  "view_count": null,
  "startUrl": "https://twitter.com/aktokaji/with_replies"
},
{
  "user": {
    "created_at": "2013-10-09T11:05:04.000Z",
    "default_profile_image": false,
    "description": "",
    "fast_followers_count": 0,
    "favourites_count": 3064,
    "followers_count": 163,
    "friends_count": 22,
    "has_custom_timelines": false,
    "is_translator": false,
    "listed_count": 5,
    "location": "",
    "media_count": 121,
    "name": "Women In Lingerie",
    "normal_followers_count": 163,
    "possibly_sensitive": true,
    "profile_banner_url": "https://pbs.twimg.com/profile_banners/1949025828/1424950316",
    "profile_image_url_https": "https://pbs.twimg.com/profile_images/566623726523781120/s_TUfO54_normal.jpeg",
    "protected": false,
    "screen_name": "aktokaji",
    "statuses_count": 31,
    "translator_type": "none",
    "verified": false,
    "withheld_in_countries": [],
    "id_str": "1949025828"
  },
  "id": "1547172175198662656",
  "conversation_id": "1547172175198662656",
  "full_text": "https://t.co/VTINp6CJEs",
  "reply_count": 0,
  "retweet_count": 0,
  "favorite_count": 0,
  "hashtags": [],
  "symbols": [],
  "user_mentions": [],
  "urls": [],
  "media": [
    {
      "media_url": "https://pbs.twimg.com/media/FXio4qyVsAMgldX.jpg",
      "type": "photo"
    }
  ],
  "url": "https://twitter.com/aktokaji/status/1547172175198662656",
  "created_at": "2022-07-13T10:52:46.000Z",
  "view_count": null,
  "startUrl": "https://twitter.com/aktokaji/with_replies"
},
{
  "user": {
    "created_at": "2013-10-09T11:05:04.000Z",
    "default_profile_image": false,
    "description": "",
    "fast_followers_count": 0,
    "favourites_count": 3064,
    "followers_count": 163,
    "friends_count": 22,
    "has_custom_timelines": false,
    "is_translator": false,
    "listed_count": 5,
    "location": "",
    "media_count": 121,
    "name": "Women In Lingerie",
    "normal_followers_count": 163,
    "possibly_sensitive": true,
    "profile_banner_url": "https://pbs.twimg.com/profile_banners/1949025828/1424950316",
    "profile_image_url_https": "https://pbs.twimg.com/profile_images/566623726523781120/s_TUfO54_normal.jpeg",
    "protected": false,
    "screen_name": "aktokaji",
    "statuses_count": 31,
    "translator_type": "none",
    "verified": false,
    "withheld_in_countries": [],
    "id_str": "1949025828"
  },
  "id": "1547171754946072577",
  "conversation_id": "1547171754946072577",
  "full_text": "https://t.co/dBlwzghryt",
  "reply_count": 0,
  "retweet_count": 0,
  "favorite_count": 0,
  "hashtags": [],
  "symbols": [],
  "user_mentions": [],
  "urls": [],
  "media": [
    {
      "media_url": "https://pbs.twimg.com/media/FXiogYEVQAA7Fo0.jpg",
      "type": "photo"
    }
  ],
  "url": "https://twitter.com/aktokaji/status/1547171754946072577",
  "created_at": "2022-07-13T10:51:06.000Z",
  "view_count": null,
  "startUrl": "https://twitter.com/aktokaji/with_replies"
},
{
  "user": {
    "created_at": "2013-10-09T11:05:04.000Z",
    "default_profile_image": false,
    "description": "",
    "fast_followers_count": 0,
    "favourites_count": 3064,
    "followers_count": 163,
    "friends_count": 22,
    "has_custom_timelines": false,
    "is_translator": false,
    "listed_count": 5,
    "location": "",
    "media_count": 121,
    "name": "Women In Lingerie",
    "normal_followers_count": 163,
    "possibly_sensitive": true,
    "profile_banner_url": "https://pbs.twimg.com/profile_banners/1949025828/1424950316",
    "profile_image_url_https": "https://pbs.twimg.com/profile_images/566623726523781120/s_TUfO54_normal.jpeg",
    "protected": false,
    "screen_name": "aktokaji",
    "statuses_count": 31,
    "translator_type": "none",
    "verified": false,
    "withheld_in_countries": [],
    "id_str": "1949025828"
  },
  "id": "1547171294373765120",
  "conversation_id": "1547171294373765120",
  "full_text": "https://t.co/cRCAJCs05F",
  "reply_count": 0,
  "retweet_count": 0,
  "favorite_count": 1,
  "hashtags": [],
  "symbols": [],
  "user_mentions": [],
  "urls": [],
  "media": [
    {
      "media_url": "https://pbs.twimg.com/media/FXioFbvVEAAQvg_.jpg",
      "type": "photo"
    }
  ],
  "url": "https://twitter.com/aktokaji/status/1547171294373765120",
  "created_at": "2022-07-13T10:49:16.000Z",
  "view_count": null,
  "startUrl": "https://twitter.com/aktokaji/with_replies"
},
{
  "user": {
    "created_at": "2013-10-09T11:05:04.000Z",
    "default_profile_image": false,
    "description": "",
    "fast_followers_count": 0,
    "favourites_count": 3064,
    "followers_count": 163,
    "friends_count": 22,
    "has_custom_timelines": false,
    "is_translator": false,
    "listed_count": 5,
    "location": "",
    "media_count": 121,
    "name": "Women In Lingerie",
    "normal_followers_count": 163,
    "possibly_sensitive": true,
    "profile_banner_url": "https://pbs.twimg.com/profile_banners/1949025828/1424950316",
    "profile_image_url_https": "https://pbs.twimg.com/profile_images/566623726523781120/s_TUfO54_normal.jpeg",
    "protected": false,
    "screen_name": "aktokaji",
    "statuses_count": 31,
    "translator_type": "none",
    "verified": false,
    "withheld_in_countries": [],
    "id_str": "1949025828"
  },
  "id": "1547170659721105408",
  "conversation_id": "1547170659721105408",
  "full_text": "https://t.co/Eo3UDnPKCd",
  "reply_count": 0,
  "retweet_count": 0,
  "favorite_count": 0,
  "hashtags": [],
  "symbols": [],
  "user_mentions": [],
  "urls": [],
  "media": [
    {
      "media_url": "https://pbs.twimg.com/media/FXingkQVEAAJdJ8.jpg",
      "type": "photo"
    }
  ],
  "url": "https://twitter.com/aktokaji/status/1547170659721105408",
  "created_at": "2022-07-13T10:46:44.000Z",
  "view_count": null,
  "startUrl": "https://twitter.com/aktokaji/with_replies"
},
{
  "user": {
    "created_at": "2013-10-09T11:05:04.000Z",
    "default_profile_image": false,
    "description": "",
    "fast_followers_count": 0,
    "favourites_count": 3064,
    "followers_count": 163,
    "friends_count": 22,
    "has_custom_timelines": false,
    "is_translator": false,
    "listed_count": 5,
    "location": "",
    "media_count": 121,
    "name": "Women In Lingerie",
    "normal_followers_count": 163,
    "possibly_sensitive": true,
    "profile_banner_url": "https://pbs.twimg.com/profile_banners/1949025828/1424950316",
    "profile_image_url_https": "https://pbs.twimg.com/profile_images/566623726523781120/s_TUfO54_normal.jpeg",
    "protected": false,
    "screen_name": "aktokaji",
    "statuses_count": 31,
    "translator_type": "none",
    "verified": false,
    "withheld_in_countries": [],
    "id_str": "1949025828"
  },
  "id": "1547168887279497216",
  "conversation_id": "1547168887279497216",
  "full_text": "https://t.co/ewKwJmDJsW",
  "reply_count": 0,
  "retweet_count": 0,
  "favorite_count": 0,
  "hashtags": [],
  "symbols": [],
  "user_mentions": [],
  "urls": [],
  "media": [
    {
      "media_url": "https://pbs.twimg.com/media/FXil5CQUIAAejoK.jpg",
      "type": "photo"
    }
  ],
  "url": "https://twitter.com/aktokaji/status/1547168887279497216",
  "created_at": "2022-07-13T10:39:42.000Z",
  "view_count": null,
  "startUrl": "https://twitter.com/aktokaji/with_replies"
},
{
  "user": {
    "created_at": "2013-10-09T11:05:04.000Z",
    "default_profile_image": false,
    "description": "",
    "fast_followers_count": 0,
    "favourites_count": 3064,
    "followers_count": 163,
    "friends_count": 22,
    "has_custom_timelines": false,
    "is_translator": false,
    "listed_count": 5,
    "location": "",
    "media_count": 121,
    "name": "Women In Lingerie",
    "normal_followers_count": 163,
    "possibly_sensitive": true,
    "profile_banner_url": "https://pbs.twimg.com/profile_banners/1949025828/1424950316",
    "profile_image_url_https": "https://pbs.twimg.com/profile_images/566623726523781120/s_TUfO54_normal.jpeg",
    "protected": false,
    "screen_name": "aktokaji",
    "statuses_count": 31,
    "translator_type": "none",
    "verified": false,
    "withheld_in_countries": [],
    "id_str": "1949025828"
  },
  "id": "1547167830314926081",
  "conversation_id": "1547167830314926081",
  "full_text": "https://t.co/bkEe7dHw8C",
  "reply_count": 0,
  "retweet_count": 0,
  "favorite_count": 0,
  "hashtags": [],
  "symbols": [],
  "user_mentions": [],
  "urls": [],
  "media": [
    {
      "media_url": "https://pbs.twimg.com/media/FXik69vUEAA1rpE.jpg",
      "type": "photo"
    }
  ],
  "url": "https://twitter.com/aktokaji/status/1547167830314926081",
  "created_at": "2022-07-13T10:35:30.000Z",
  "view_count": null,
  "startUrl": "https://twitter.com/aktokaji/with_replies"
},
{
  "user": {
    "created_at": "2013-10-09T11:05:04.000Z",
    "default_profile_image": false,
    "description": "",
    "fast_followers_count": 0,
    "favourites_count": 3064,
    "followers_count": 163,
    "friends_count": 22,
    "has_custom_timelines": false,
    "is_translator": false,
    "listed_count": 5,
    "location": "",
    "media_count": 121,
    "name": "Women In Lingerie",
    "normal_followers_count": 163,
    "possibly_sensitive": true,
    "profile_banner_url": "https://pbs.twimg.com/profile_banners/1949025828/1424950316",
    "profile_image_url_https": "https://pbs.twimg.com/profile_images/566623726523781120/s_TUfO54_normal.jpeg",
    "protected": false,
    "screen_name": "aktokaji",
    "statuses_count": 31,
    "translator_type": "none",
    "verified": false,
    "withheld_in_countries": [],
    "id_str": "1949025828"
  },
  "id": "1547167302725996544",
  "conversation_id": "1547167302725996544",
  "full_text": "https://t.co/5lti1eXFUJ",
  "reply_count": 0,
  "retweet_count": 0,
  "favorite_count": 0,
  "hashtags": [],
  "symbols": [],
  "user_mentions": [],
  "urls": [],
  "media": [
    {
      "media_url": "https://pbs.twimg.com/media/FXikdRbUYAAgAde.jpg",
      "type": "photo"
    }
  ],
  "url": "https://twitter.com/aktokaji/status/1547167302725996544",
  "created_at": "2022-07-13T10:33:24.000Z",
  "view_count": null,
  "startUrl": "https://twitter.com/aktokaji/with_replies"
},
{
  "user": {
    "created_at": "2013-10-09T11:05:04.000Z",
    "default_profile_image": false,
    "description": "",
    "fast_followers_count": 0,
    "favourites_count": 3064,
    "followers_count": 163,
    "friends_count": 22,
    "has_custom_timelines": false,
    "is_translator": false,
    "listed_count": 5,
    "location": "",
    "media_count": 121,
    "name": "Women In Lingerie",
    "normal_followers_count": 163,
    "possibly_sensitive": true,
    "profile_banner_url": "https://pbs.twimg.com/profile_banners/1949025828/1424950316",
    "profile_image_url_https": "https://pbs.twimg.com/profile_images/566623726523781120/s_TUfO54_normal.jpeg",
    "protected": false,
    "screen_name": "aktokaji",
    "statuses_count": 31,
    "translator_type": "none",
    "verified": false,
    "withheld_in_countries": [],
    "id_str": "1949025828"
  },
  "id": "1547166926131974145",
  "conversation_id": "1547166926131974145",
  "full_text": "https://t.co/8KaEoTeDi3",
  "reply_count": 0,
  "retweet_count": 0,
  "favorite_count": 0,
  "hashtags": [],
  "symbols": [],
  "user_mentions": [],
  "urls": [],
  "media": [
    {
      "media_url": "https://pbs.twimg.com/media/FXikHCvUUAIi7n6.jpg",
      "type": "photo"
    }
  ],
  "url": "https://twitter.com/aktokaji/status/1547166926131974145",
  "created_at": "2022-07-13T10:31:54.000Z",
  "view_count": null,
  "startUrl": "https://twitter.com/aktokaji/with_replies"
},
{
  "user": {
    "created_at": "2013-10-09T11:05:04.000Z",
    "default_profile_image": false,
    "description": "",
    "fast_followers_count": 0,
    "favourites_count": 3064,
    "followers_count": 163,
    "friends_count": 22,
    "has_custom_timelines": false,
    "is_translator": false,
    "listed_count": 5,
    "location": "",
    "media_count": 121,
    "name": "Women In Lingerie",
    "normal_followers_count": 163,
    "possibly_sensitive": true,
    "profile_banner_url": "https://pbs.twimg.com/profile_banners/1949025828/1424950316",
    "profile_image_url_https": "https://pbs.twimg.com/profile_images/566623726523781120/s_TUfO54_normal.jpeg",
    "protected": false,
    "screen_name": "aktokaji",
    "statuses_count": 31,
    "translator_type": "none",
    "verified": false,
    "withheld_in_countries": [],
    "id_str": "1949025828"
  },
  "id": "1547166562313916416",
  "conversation_id": "1547166562313916416",
  "full_text": "https://t.co/pRJ1r9T6RM",
  "reply_count": 0,
  "retweet_count": 0,
  "favorite_count": 0,
  "hashtags": [],
  "symbols": [],
  "user_mentions": [],
  "urls": [],
  "media": [
    {
      "media_url": "https://pbs.twimg.com/media/FXijyETVEAAZvfq.jpg",
      "type": "photo"
    }
  ],
  "url": "https://twitter.com/aktokaji/status/1547166562313916416",
  "created_at": "2022-07-13T10:30:28.000Z",
  "view_count": null,
  "startUrl": "https://twitter.com/aktokaji/with_replies"
},
{
  "user": {
    "created_at": "2013-10-09T11:05:04.000Z",
    "default_profile_image": false,
    "description": "",
    "fast_followers_count": 0,
    "favourites_count": 3064,
    "followers_count": 163,
    "friends_count": 22,
    "has_custom_timelines": false,
    "is_translator": false,
    "listed_count": 5,
    "location": "",
    "media_count": 121,
    "name": "Women In Lingerie",
    "normal_followers_count": 163,
    "possibly_sensitive": true,
    "profile_banner_url": "https://pbs.twimg.com/profile_banners/1949025828/1424950316",
    "profile_image_url_https": "https://pbs.twimg.com/profile_images/566623726523781120/s_TUfO54_normal.jpeg",
    "protected": false,
    "screen_name": "aktokaji",
    "statuses_count": 31,
    "translator_type": "none",
    "verified": false,
    "withheld_in_countries": [],
    "id_str": "1949025828"
  },
  "id": "1547165472277159937",
  "conversation_id": "1547165472277159937",
  "full_text": "https://t.co/qJKOTYtXWE",
  "reply_count": 0,
  "retweet_count": 0,
  "favorite_count": 0,
  "hashtags": [],
  "symbols": [],
  "user_mentions": [],
  "urls": [],
  "media": [
    {
      "media_url": "https://pbs.twimg.com/media/FXiiydxVEAA86EZ.jpg",
      "type": "photo"
    }
  ],
  "url": "https://twitter.com/aktokaji/status/1547165472277159937",
  "created_at": "2022-07-13T10:26:08.000Z",
  "view_count": null,
  "startUrl": "https://twitter.com/aktokaji/with_replies"
},
{
  "user": {
    "created_at": "2013-10-09T11:05:04.000Z",
    "default_profile_image": false,
    "description": "",
    "fast_followers_count": 0,
    "favourites_count": 3064,
    "followers_count": 163,
    "friends_count": 22,
    "has_custom_timelines": false,
    "is_translator": false,
    "listed_count": 5,
    "location": "",
    "media_count": 121,
    "name": "Women In Lingerie",
    "normal_followers_count": 163,
    "possibly_sensitive": true,
    "profile_banner_url": "https://pbs.twimg.com/profile_banners/1949025828/1424950316",
    "profile_image_url_https": "https://pbs.twimg.com/profile_images/566623726523781120/s_TUfO54_normal.jpeg",
    "protected": false,
    "screen_name": "aktokaji",
    "statuses_count": 31,
    "translator_type": "none",
    "verified": false,
    "withheld_in_countries": [],
    "id_str": "1949025828"
  },
  "id": "1547165018470244353",
  "conversation_id": "1547165018470244353",
  "full_text": "https://t.co/OOEwmuscDl",
  "reply_count": 0,
  "retweet_count": 0,
  "favorite_count": 0,
  "hashtags": [],
  "symbols": [],
  "user_mentions": [],
  "urls": [],
  "media": [
    {
      "media_url": "https://pbs.twimg.com/media/FXiiYBSUEAECdwo.jpg",
      "type": "photo"
    }
  ],
  "url": "https://twitter.com/aktokaji/status/1547165018470244353",
  "created_at": "2022-07-13T10:24:19.000Z",
  "view_count": null,
  "startUrl": "https://twitter.com/aktokaji/with_replies"
},
{
  "user": {
    "created_at": "2013-10-09T11:05:04.000Z",
    "default_profile_image": false,
    "description": "",
    "fast_followers_count": 0,
    "favourites_count": 3064,
    "followers_count": 163,
    "friends_count": 22,
    "has_custom_timelines": false,
    "is_translator": false,
    "listed_count": 5,
    "location": "",
    "media_count": 121,
    "name": "Women In Lingerie",
    "normal_followers_count": 163,
    "possibly_sensitive": true,
    "profile_banner_url": "https://pbs.twimg.com/profile_banners/1949025828/1424950316",
    "profile_image_url_https": "https://pbs.twimg.com/profile_images/566623726523781120/s_TUfO54_normal.jpeg",
    "protected": false,
    "screen_name": "aktokaji",
    "statuses_count": 31,
    "translator_type": "none",
    "verified": false,
    "withheld_in_countries": [],
    "id_str": "1949025828"
  },
  "id": "1547164387286257664",
  "conversation_id": "1547164387286257664",
  "full_text": "https://t.co/QokQ5tM5qp",
  "reply_count": 0,
  "retweet_count": 0,
  "favorite_count": 0,
  "hashtags": [],
  "symbols": [],
  "user_mentions": [],
  "urls": [],
  "media": [
    {
      "media_url": "https://pbs.twimg.com/media/FXihzQcVUAEYd6m.jpg",
      "type": "photo"
    }
  ],
  "url": "https://twitter.com/aktokaji/status/1547164387286257664",
  "created_at": "2022-07-13T10:21:49.000Z",
  "view_count": null,
  "startUrl": "https://twitter.com/aktokaji/with_replies"
},
{
  "user": {
    "created_at": "2013-10-09T11:05:04.000Z",
    "default_profile_image": false,
    "description": "",
    "fast_followers_count": 0,
    "favourites_count": 3064,
    "followers_count": 163,
    "friends_count": 22,
    "has_custom_timelines": false,
    "is_translator": false,
    "listed_count": 5,
    "location": "",
    "media_count": 121,
    "name": "Women In Lingerie",
    "normal_followers_count": 163,
    "possibly_sensitive": true,
    "profile_banner_url": "https://pbs.twimg.com/profile_banners/1949025828/1424950316",
    "profile_image_url_https": "https://pbs.twimg.com/profile_images/566623726523781120/s_TUfO54_normal.jpeg",
    "protected": false,
    "screen_name": "aktokaji",
    "statuses_count": 31,
    "translator_type": "none",
    "verified": false,
    "withheld_in_countries": [],
    "id_str": "1949025828"
  },
  "id": "1547163769700114432",
  "conversation_id": "1547163769700114432",
  "full_text": "https://t.co/kEG97Vf2Qg",
  "reply_count": 0,
  "retweet_count": 0,
  "favorite_count": 0,
  "hashtags": [],
  "symbols": [],
  "user_mentions": [],
  "urls": [],
  "media": [
    {
      "media_url": "https://pbs.twimg.com/media/FXihO-FUEAAsDd6.jpg",
      "type": "photo"
    }
  ],
  "url": "https://twitter.com/aktokaji/status/1547163769700114432",
  "created_at": "2022-07-13T10:19:22.000Z",
  "view_count": null,
  "startUrl": "https://twitter.com/aktokaji/with_replies"
},
{
  "user": {
    "created_at": "2013-10-09T11:05:04.000Z",
    "default_profile_image": false,
    "description": "",
    "fast_followers_count": 0,
    "favourites_count": 3064,
    "followers_count": 163,
    "friends_count": 22,
    "has_custom_timelines": false,
    "is_translator": false,
    "listed_count": 5,
    "location": "",
    "media_count": 121,
    "name": "Women In Lingerie",
    "normal_followers_count": 163,
    "possibly_sensitive": true,
    "profile_banner_url": "https://pbs.twimg.com/profile_banners/1949025828/1424950316",
    "profile_image_url_https": "https://pbs.twimg.com/profile_images/566623726523781120/s_TUfO54_normal.jpeg",
    "protected": false,
    "screen_name": "aktokaji",
    "statuses_count": 31,
    "translator_type": "none",
    "verified": false,
    "withheld_in_countries": [],
    "id_str": "1949025828"
  },
  "id": "1546995185879461889",
  "conversation_id": "1546995185879461889",
  "full_text": "https://t.co/H2k7uK2BQv",
  "reply_count": 0,
  "retweet_count": 0,
  "favorite_count": 0,
  "hashtags": [],
  "symbols": [],
  "user_mentions": [],
  "urls": [],
  "media": [
    {
      "media_url": "https://pbs.twimg.com/media/FXgH6frVsAADt0i.jpg",
      "type": "photo"
    }
  ],
  "url": "https://twitter.com/aktokaji/status/1546995185879461889",
  "created_at": "2022-07-12T23:09:28.000Z",
  "view_count": null,
  "startUrl": "https://twitter.com/aktokaji/with_replies"
},
{
  "user": {
    "created_at": "2013-10-09T11:05:04.000Z",
    "default_profile_image": false,
    "description": "",
    "fast_followers_count": 0,
    "favourites_count": 3064,
    "followers_count": 163,
    "friends_count": 22,
    "has_custom_timelines": false,
    "is_translator": false,
    "listed_count": 5,
    "location": "",
    "media_count": 121,
    "name": "Women In Lingerie",
    "normal_followers_count": 163,
    "possibly_sensitive": true,
    "profile_banner_url": "https://pbs.twimg.com/profile_banners/1949025828/1424950316",
    "profile_image_url_https": "https://pbs.twimg.com/profile_images/566623726523781120/s_TUfO54_normal.jpeg",
    "protected": false,
    "screen_name": "aktokaji",
    "statuses_count": 31,
    "translator_type": "none",
    "verified": false,
    "withheld_in_countries": [],
    "id_str": "1949025828"
  },
  "id": "1546993251898384384",
  "conversation_id": "1546993251898384384",
  "full_text": "https://t.co/xFOqZat1Gn",
  "reply_count": 0,
  "retweet_count": 0,
  "favorite_count": 0,
  "hashtags": [],
  "symbols": [],
  "user_mentions": [],
  "urls": [],
  "media": [
    {
      "media_url": "https://pbs.twimg.com/media/FXgGJ0SUEAAjXLn.jpg",
      "type": "photo"
    }
  ],
  "url": "https://twitter.com/aktokaji/status/1546993251898384384",
  "created_at": "2022-07-12T23:01:47.000Z",
  "view_count": null,
  "startUrl": "https://twitter.com/aktokaji/with_replies"
},
{
  "user": {
    "created_at": "2013-10-09T11:05:04.000Z",
    "default_profile_image": false,
    "description": "",
    "fast_followers_count": 0,
    "favourites_count": 3064,
    "followers_count": 163,
    "friends_count": 22,
    "has_custom_timelines": false,
    "is_translator": false,
    "listed_count": 5,
    "location": "",
    "media_count": 121,
    "name": "Women In Lingerie",
    "normal_followers_count": 163,
    "possibly_sensitive": true,
    "profile_banner_url": "https://pbs.twimg.com/profile_banners/1949025828/1424950316",
    "profile_image_url_https": "https://pbs.twimg.com/profile_images/566623726523781120/s_TUfO54_normal.jpeg",
    "protected": false,
    "screen_name": "aktokaji",
    "statuses_count": 31,
    "translator_type": "none",
    "verified": false,
    "withheld_in_countries": [],
    "id_str": "1949025828"
  },
  "id": "1546991883313827840",
  "conversation_id": "1546991883313827840",
  "full_text": "https://t.co/LpI0uvlGbG",
  "reply_count": 0,
  "retweet_count": 0,
  "favorite_count": 0,
  "hashtags": [],
  "symbols": [],
  "user_mentions": [],
  "urls": [],
  "media": [
    {
      "media_url": "https://pbs.twimg.com/media/FXgE6LXUYAABkmd.jpg",
      "type": "photo"
    }
  ],
  "url": "https://twitter.com/aktokaji/status/1546991883313827840",
  "created_at": "2022-07-12T22:56:21.000Z",
  "view_count": null,
  "startUrl": "https://twitter.com/aktokaji/with_replies"
},
{
  "user": {
    "created_at": "2013-10-09T11:05:04.000Z",
    "default_profile_image": false,
    "description": "",
    "fast_followers_count": 0,
    "favourites_count": 3064,
    "followers_count": 163,
    "friends_count": 22,
    "has_custom_timelines": false,
    "is_translator": false,
    "listed_count": 5,
    "location": "",
    "media_count": 121,
    "name": "Women In Lingerie",
    "normal_followers_count": 163,
    "possibly_sensitive": true,
    "profile_banner_url": "https://pbs.twimg.com/profile_banners/1949025828/1424950316",
    "profile_image_url_https": "https://pbs.twimg.com/profile_images/566623726523781120/s_TUfO54_normal.jpeg",
    "protected": false,
    "screen_name": "aktokaji",
    "statuses_count": 31,
    "translator_type": "none",
    "verified": false,
    "withheld_in_countries": [],
    "id_str": "1949025828"
  },
  "id": "1546988796750598144",
  "conversation_id": "1546988796750598144",
  "full_text": "https://t.co/DjwCinE5P1",
  "reply_count": 0,
  "retweet_count": 0,
  "favorite_count": 0,
  "hashtags": [],
  "symbols": [],
  "user_mentions": [],
  "urls": [],
  "media": [
    {
      "media_url": "https://pbs.twimg.com/media/FXgCFAxUEAEpd3t.jpg",
      "type": "photo"
    }
  ],
  "url": "https://twitter.com/aktokaji/status/1546988796750598144",
  "created_at": "2022-07-12T22:44:05.000Z",
  "view_count": null,
  "startUrl": "https://twitter.com/aktokaji/with_replies"
}]